-----BEGIN PGP MESSAGE-----
Version: LibTMCG 1.3.14

wf8AAABeA2aAdcNuOtlzEgEHQC8cZnKNmmXaC6qkDRZ2YcVMNvrLQ8Ro1zCqMH3F
eDNJMFztI2i2Q+8cGH507FylT6rkb3N+L+YG4c4HlwhOfxrHO/cUMaaElk/P8/2i
+UHIZNL/AAAASgFmWearP7wBYrOlnYgQeIdaN/O840Zq0qlCJ3dw03cCySCryVQS
eWaY0d1IrorU9vKYykZwHnDVhITEAA4W2PGFRVqseTdFOyiF
=bWl1
-----END PGP MESSAGE-----
