Error: Error encrypting message: Could not find valid key packet for encryption in key c203b4d02aeb56e3
    at _callee8$ (C:\Workspaces\Projects\weird-keys\openpgpjs\node_modules\openpgp\dist\openpgp.js:42629:31)
    at tryCatch (C:\Workspaces\Projects\weird-keys\openpgpjs\node_modules\openpgp\dist\openpgp.js:26631:40)
    at Generator.invoke [as _invoke] (C:\Workspaces\Projects\weird-keys\openpgpjs\node_modules\openpgp\dist\openpgp.js:26865:22)
    at Generator.prototype.(anonymous function) [as next] (C:\Workspaces\Projects\weird-keys\openpgpjs\node_modules\openpgp\dist\openpgp.js:26683:21)
    at step (C:\Workspaces\Projects\weird-keys\openpgpjs\node_modules\openpgp\dist\openpgp.js:4012:30)
    at C:\Workspaces\Projects\weird-keys\openpgpjs\node_modules\openpgp\dist\openpgp.js:4023:13
    at <anonymous>
    at process._tickCallback (internal/process/next_tick.js:188:7)
    at Function.Module.runMain (module.js:607:11)
    at startup (bootstrap_node.js:158:16)
